{
    "icoId": "06596193",
    "zaznamy": [
        {
            "ico": "06596193",
            "obchodniJmeno": "UX Fans s.r.o.",
            "sidlo": {
                "kodStatu": "CZ",
                "nazevStatu": "\u010ceska republika",
                "kodKraje": 78,
                "nazevKraje": "Libereck\u00fd kraj",
                "kodOkresu": 3505,
                "nazevOkresu": "Liberec",
                "kodObce": 563889,
                "nazevObce": "Liberec",
                "kodMestskeCastiObvodu": 556904,
                "kodUlice": 253995,
                "nazevMestskeCastiObvodu": "Liberec (ne\u010dlen\u011bn\u00e9 m\u011bsto)",
                "nazevUlice": "Sovova",
                "cisloDomovni": 584,
                "kodCastiObce": 408727,
                "cisloOrientacni": 2,
                "nazevCastiObce": "Liberec XIV-Ruprechtice",
                "kodAdresnihoMista": 23713011,
                "psc": 46014,
                "textovaAdresa": "Sovova 584\/2, Liberec XIV-Ruprechtice, 46014 Liberec"
            },
            "pravniForma": "112",
            "financniUrad": "192",
            "datumVzniku": "2017-11-13",
            "datumAktualizace": "2017-11-20",
            "adresySubjektu": [
                {
                    "kodStatu": "CZ",
                    "nazevStatu": "\u010ceska republika",
                    "kodKraje": 78,
                    "nazevKraje": "Libereck\u00fd kraj",
                    "kodOkresu": 3505,
                    "nazevOkresu": "Liberec",
                    "kodObce": 563889,
                    "nazevObce": "Liberec",
                    "kodMestskeCastiObvodu": 556904,
                    "kodUlice": 253995,
                    "nazevMestskeCastiObvodu": "Liberec (ne\u010dlen\u011bn\u00e9 m\u011bsto)",
                    "nazevUlice": "Sovova",
                    "cisloDomovni": 584,
                    "kodCastiObce": 408727,
                    "cisloOrientacni": 2,
                    "nazevCastiObce": "Liberec XIV-Ruprechtice",
                    "kodAdresnihoMista": 23713011,
                    "psc": 46014,
                    "textovaAdresa": "Sovova 584\/2, Liberec XIV-Ruprechtice, 46014 Liberec",
                    "platnostOd": "2017-11-09",
                    "typAdresy": "SIDLO"
                }
            ],
            "typSubjektu": "P",
            "zivnostenskyUrad": "350506",
            "zivnostiStav": {
                "pocetAktivnich": 1,
                "pocetZaniklych": 0,
                "pocetPozastavenych": 0,
                "pocetPrerusenych": 0,
                "pocetCelkem": 1
            },
            "datumZapisuVr": "2017-11-13",
            "primarniZaznam": true,
            "kodStatu": "CZ",
            "angazovaneOsoby": [
                {
                    "jmeno": "Rudolf",
                    "prijmeni": "Krejcar",
                    "platnostOd": "2017-11-13",
                    "statniObcanstvi": "CZ",
                    "typAngazma": "STATUTARNI_ZASTUPCE_RZP"
                },
                {
                    "jmeno": "Tom\u00e1\u0161",
                    "prijmeni": "Valou\u0161ek",
                    "platnostOd": "2017-11-13",
                    "statniObcanstvi": "CZ",
                    "typAngazma": "STATUTARNI_ZASTUPCE_RZP"
                }
            ],
            "zivnosti": [
                {
                    "datumVzniku": "2017-11-13",
                    "predmetPodnikani": "V\u00fdroba, obchod a slu\u017eby neuveden\u00e9 v p\u0159\u00edloh\u00e1ch 1 a\u017e 3 \u017eivnostensk\u00e9ho z\u00e1kona",
                    "datumAktualizace": "2017-11-20",
                    "druhZivnosti": "L",
                    "oboryCinnosti": [
                        {
                            "platnostOd": "2017-11-13",
                            "oborNazev": "Zprost\u0159edkov\u00e1n\u00ed obchodu a slu\u017eeb"
                        },
                        {
                            "platnostOd": "2017-11-13",
                            "oborNazev": "Velkoobchod a maloobchod"
                        },
                        {
                            "platnostOd": "2017-11-13",
                            "oborNazev": "Reklamn\u00ed \u010dinnost, marketing, medi\u00e1ln\u00ed zastoupen\u00ed"
                        },
                        {
                            "platnostOd": "2017-11-13",
                            "oborNazev": "P\u0159\u00edprava a vypracov\u00e1n\u00ed technick\u00fdch n\u00e1vrh\u016f, grafick\u00e9 a kresli\u010dsk\u00e9 pr\u00e1ce"
                        },
                        {
                            "platnostOd": "2017-11-13",
                            "oborNazev": "Vydavatelsk\u00e9 \u010dinnosti, polygrafick\u00e1 v\u00fdroba, kniha\u0159sk\u00e9 a kop\u00edrovac\u00ed pr\u00e1ce"
                        },
                        {
                            "platnostOd": "2017-11-13",
                            "oborNazev": "Slu\u017eby v oblasti administrativn\u00ed spr\u00e1vy a slu\u017eby organiza\u010dn\u011b hospod\u00e1\u0159sk\u00e9 povahy"
                        },
                        {
                            "platnostOd": "2017-11-13",
                            "oborNazev": "V\u00fdroba, rozmno\u017eov\u00e1n\u00ed, distribuce, prodej, pron\u00e1jem zvukov\u00fdch a zvukov\u011b-obrazov\u00fdch z\u00e1znam\u016f a v\u00fdroba nenahran\u00fdch nosi\u010d\u016f \u00fadaj\u016f a z\u00e1znam\u016f"
                        },
                        {
                            "platnostOd": "2017-11-13",
                            "oborNazev": "Poskytov\u00e1n\u00ed software, poradenstv\u00ed v oblasti informa\u010dn\u00edch technologi\u00ed, zpracov\u00e1n\u00ed dat, hostingov\u00e9 a souvisej\u00edc\u00ed \u010dinnosti a webov\u00e9 port\u00e1ly"
                        },
                        {
                            "platnostOd": "2017-11-13",
                            "oborNazev": "V\u00fdroba elektronick\u00fdch sou\u010d\u00e1stek, elektrick\u00fdch za\u0159\u00edzen\u00ed a v\u00fdroba a opravy elektrick\u00fdch stroj\u016f, p\u0159\u00edstroj\u016f a elektronick\u00fdch za\u0159\u00edzen\u00ed pracuj\u00edc\u00edch na mal\u00e9m nap\u011bt\u00ed"
                        },
                        {
                            "platnostOd": "2017-11-13",
                            "oborNazev": "\u010cinnost informa\u010dn\u00edch a zpravodajsk\u00fdch kancel\u00e1\u0159\u00ed"
                        },
                        {
                            "platnostOd": "2017-11-13",
                            "oborNazev": "V\u00fdroba dal\u0161\u00edch v\u00fdrobk\u016f zpracovatelsk\u00e9ho pr\u016fmyslu"
                        }
                    ]
                }
            ]
        }
    ]
}