{
    "icoId": "87825317",
    "zaznamy": [
        {
            "ico": "87825317",
            "obchodniJmeno": "Bc. Martin Vik",
            "pravniForma": "101",
            "financniUrad": "258",
            "datumVzniku": "2011-05-04",
            "datumAktualizace": "2015-10-19",
            "adresySubjektu": [
                {
                    "kodStatu": "CZ",
                    "nazevStatu": "\u010ceska republika",
                    "kodKraje": 78,
                    "nazevKraje": "Libereck\u00fd kraj",
                    "kodOkresu": 3608,
                    "nazevOkresu": "Semily",
                    "kodObce": 577197,
                    "nazevObce": "Jilemnice",
                    "kodUlice": 545422,
                    "nazevUlice": "Jungmannova",
                    "cisloDomovni": 278,
                    "kodCastiObce": 410888,
                    "nazevCastiObce": "Jilemnice",
                    "kodAdresnihoMista": 16974131,
                    "psc": 51401,
                    "textovaAdresa": "Jungmannova 278, 51401 Jilemnice",
                    "platnostOd": "2011-05-04",
                    "typAdresy": "MISTOPODNIKANI"
                }
            ],
            "typSubjektu": "F",
            "zivnostenskyUrad": "360804",
            "zivnostiStav": {
                "pocetAktivnich": 1,
                "pocetZaniklych": 0,
                "pocetPozastavenych": 0,
                "pocetPrerusenych": 0,
                "pocetCelkem": 1
            },
            "primarniZaznam": true,
            "kodStatu": "CZ",
            "angazovaneOsoby": [
                {
                    "jmeno": "Martin",
                    "prijmeni": "Vik",
                    "titulPredJmenem": "Bc.",
                    "platnostOd": "2011-05-04",
                    "statniObcanstvi": "CZ",
                    "typAngazma": "PODNIKATEL_RZP"
                }
            ],
            "zivnosti": [
                {
                    "datumVzniku": "2011-05-04",
                    "predmetPodnikani": "V\u00fdroba, obchod a slu\u017eby neuveden\u00e9 v p\u0159\u00edloh\u00e1ch 1 a\u017e 3 \u017eivnostensk\u00e9ho z\u00e1kona",
                    "datumAktualizace": "2011-05-04",
                    "druhZivnosti": "L",
                    "oboryCinnosti": [
                        {
                            "platnostOd": "2011-05-04",
                            "oborNazev": "Vydavatelsk\u00e9 \u010dinnosti, polygrafick\u00e1 v\u00fdroba, kniha\u0159sk\u00e9 a kop\u00edrovac\u00ed pr\u00e1ce"
                        },
                        {
                            "platnostOd": "2011-05-04",
                            "oborNazev": "V\u00fdroba, rozmno\u017eov\u00e1n\u00ed, distribuce, prodej, pron\u00e1jem zvukov\u00fdch a zvukov\u011b-obrazov\u00fdch z\u00e1znam\u016f a v\u00fdroba nenahran\u00fdch nosi\u010d\u016f \u00fadaj\u016f a z\u00e1znam\u016f"
                        },
                        {
                            "platnostOd": "2011-05-04",
                            "oborNazev": "V\u00fdroba kovov\u00fdch konstrukc\u00ed a kovod\u011bln\u00fdch v\u00fdrobk\u016f"
                        },
                        {
                            "platnostOd": "2011-05-04",
                            "oborNazev": "Velkoobchod a maloobchod"
                        },
                        {
                            "platnostOd": "2011-05-04",
                            "oborNazev": "Reklamn\u00ed \u010dinnost, marketing, medi\u00e1ln\u00ed zastoupen\u00ed"
                        },
                        {
                            "platnostOd": "2011-05-04",
                            "oborNazev": "Fotografick\u00e9 slu\u017eby"
                        },
                        {
                            "platnostOd": "2011-05-04",
                            "oborNazev": "Provozov\u00e1n\u00ed kulturn\u00edch, kulturn\u011b-vzd\u011bl\u00e1vac\u00edch a z\u00e1bavn\u00edch za\u0159\u00edzen\u00ed, po\u0159\u00e1d\u00e1n\u00ed kulturn\u00edch produkc\u00ed, z\u00e1bav, v\u00fdstav, veletrh\u016f, p\u0159ehl\u00eddek, prodejn\u00edch a obdobn\u00fdch akc\u00ed"
                        },
                        {
                            "platnostOd": "2011-05-04",
                            "oborNazev": "P\u0159\u00edpravn\u00e9 a dokon\u010dovac\u00ed stavebn\u00ed pr\u00e1ce, specializovan\u00e9 stavebn\u00ed \u010dinnosti"
                        },
                        {
                            "platnostOd": "2011-05-04",
                            "oborNazev": "Zprost\u0159edkov\u00e1n\u00ed obchodu a slu\u017eeb"
                        },
                        {
                            "platnostOd": "2011-05-04",
                            "oborNazev": "Poskytov\u00e1n\u00ed software, poradenstv\u00ed v oblasti informa\u010dn\u00edch technologi\u00ed, zpracov\u00e1n\u00ed dat, hostingov\u00e9 a souvisej\u00edc\u00ed \u010dinnosti a webov\u00e9 port\u00e1ly"
                        },
                        {
                            "platnostOd": "2011-05-04",
                            "oborNazev": "P\u0159\u00edprava a vypracov\u00e1n\u00ed technick\u00fdch n\u00e1vrh\u016f, grafick\u00e9 a kresli\u010dsk\u00e9 pr\u00e1ce"
                        },
                        {
                            "platnostOd": "2011-05-04",
                            "oborNazev": "Provozov\u00e1n\u00ed t\u011blov\u00fdchovn\u00fdch a sportovn\u00edch za\u0159\u00edzen\u00ed a organizov\u00e1n\u00ed sportovn\u00ed \u010dinnosti"
                        },
                        {
                            "platnostOd": "2011-05-04",
                            "oborNazev": "Poskytov\u00e1n\u00ed technick\u00fdch slu\u017eeb"
                        }
                    ]
                }
            ]
        }
    ]
}